﻿{
  "CachingSettings": [
    {
      "Id": "ddlCache",
      "Class": "Surging.Core.Caching.RedisCache.RedisContext,Surging.Core.Caching",
      "InitMethod": "",
      "Maps": null,
      "Properties": [
        {
          "Name": "appRuleFile",
          "Ref": "rule",
          "Value": "",
          "Maps": null
        },
        {
          "Name": "dataContextPool",
          "Ref": "ddls_sample",
          "Value": "",
          "Maps": [
            {
              "Name": "Redis",
              "Properties": [
                {
                  "Name": null,
                  "Ref": null,
                  "Value": "a5025365@yaoshumeng.com:6379::1",
                  "Maps": null
                }
              ]
            },
            {
              "Name": "MemoryCache",
              "Properties": null
            }
          ]
        },
        {
          "Name": "defaultExpireTime",
          "Ref": "",
          "Value": "120",
          "Maps": null
        },
        {
          "Name": "connectTimeout",
          "Ref": "",
          "Value": "120",
          "Maps": null
        },
        {
          "Name": "minSize",
          "Ref": "",
          "Value": "1",
          "Maps": null
        },
        {
          "Name": "maxSize",
          "Ref": "",
          "Value": "10",
          "Maps": null
        }
      ]
    }
  ]
}